socks5://114.26.156.172:1080
http://106.104.151.142:58198
socks4://114.35.237.73:4145
socks4://220.135.2.247:59171
socks4://123.110.11.185:54845
socks4://210.61.216.66:33990
http://61.216.43.102:8080
socks4://220.130.167.59:60498
socks4://220.132.57.245:4145
socks4://118.163.47.40:60909
socks4://118.163.47.42:60909
http://106.104.12.140:80
http://61.220.204.25:3128
socks4://106.104.151.142:53046
socks4://220.130.167.59:60498
socks4://114.32.205.167:4145
socks4://123.110.11.185:54845
socks4://114.35.237.73:4145
socks4://220.135.2.247:59171
http://106.104.151.142:58198
http://114.33.189.29:34275
socks4://106.104.151.142:53046
